[{
	"_id": {
		"$oid": "5ee9250a761cf87371cf30be"
	},
	"KSATs": [
		{
			"object_id": {
				"$oid": "5f457f1e1ea90ba9adb32bc4"
			},
			"item_proficiency": "",
			"url": "https://39iosdev.gitlab.io/ccd-iqt/idf/agile/Agile/Overview.html"
		},
		{
			"object_id": {
				"$oid": "5f457f1e1ea90ba9adb32bd4"
			},
			"item_proficiency": "",
			"url": "https://39iosdev.gitlab.io/ccd-iqt/idf/agile/Agile/Overview.html"
		},
		{
			"object_id": {
				"$oid": "5f457f1e1ea90ba9adb32bdd"
			},
			"item_proficiency": "",
			"url": "https://39iosdev.gitlab.io/ccd-iqt/idf/agile/Agile/Overview.html"
		},
		{
			"object_id": {
				"$oid": "5f457f1e1ea90ba9adb32bdc"
			},
			"item_proficiency": "",
			"url": "https://39iosdev.gitlab.io/ccd-iqt/idf/agile/Agile/Overview.html"
		}
	],
	"network": "commercial",
	"course": "Professional_Scrum_Product_Owner_I",
	"module": "scrum.org-professional-scrum-product-owner-i",
	"topic": "Product-Purpose",
	"subject": "pspo-product-purpose",
	"work-roles": [
		"PO"
	],
	"map_for": "training",
	"topic_path": "./",
	"created_on": "2020-06-16",
	"updated_on": "2020-08-28"
},
{
	"_id": {
		"$oid": "5ee9250a761cf87371cf30bf"
	},
	"KSATs": [
		{
			"object_id": {
				"$oid": "5f457f1e1ea90ba9adb32ba7"
			},
			"item_proficiency": "",
			"url": "https://39iosdev.gitlab.io/ccd-iqt/idf/agile/Agile/Overview.html"
		},
		{
			"ksat_id": "S0188",
			"item_proficiency": "3",
			"url": "https://www.scrum.org/courses/professional-scrum-product-owner-training"
		}
	],
	"network": "commercial",
	"course": "Professional_Scrum_Product_Owner_I",
	"module": "scrum.org-professional-scrum-product-owner-i",
	"topic": "Stakeholder-Interactions",
	"subject": "pspo-stakeholder-interactions",
	"work-roles": [
		"PO"
	],
	"map_for": "training",
	"topic_path": "./",
	"created_on": "2020-06-16"
},
{
	"_id": {
		"$oid": "5ee9250a761cf87371cf30c0"
	},
	"KSATs": [
		{
			"object_id": {
				"$oid": "5f457f1e1ea90ba9adb32ecc"
			},
			"item_proficiency": "",
			"url": "https://39iosdev.gitlab.io/ccd-iqt/idf/agile/Agile/Overview.html"
		}
	],
	"network": "commercial",
	"course": "Professional_Scrum_Product_Owner_I",
	"module": "scrum.org-professional-scrum-product-owner-i",
	"topic": "Release-and-Sprint-Planning",
	"subject": "pspo-release-and-sprint-planning",
	"work-roles": [
		"PO"
	],
	"map_for": "training",
	"topic_path": "./",
	"created_on": "2020-06-16",
	"updated_on": "2020-08-28"
},
{
	"_id": {
		"$oid": "5ee9250a761cf87371cf30c1"
	},
	"KSATs": [
		{
			"object_id": {
				"$oid": "5f457f1e1ea90ba9adb32ba8"
			},
			"item_proficiency": "",
			"url": "https://39iosdev.gitlab.io/ccd-iqt/idf/agile/Agile/Overview.html"
		},
		{
			"object_id": {
				"$oid": "5f457f1e1ea90ba9adb32bc5"
			},
			"item_proficiency": "",
			"url": "https://39iosdev.gitlab.io/ccd-iqt/idf/agile/Agile/Overview.html"
		},
		{
			"object_id": {
				"$oid": "5f457f1e1ea90ba9adb32bbb"
			},
			"item_proficiency": "",
			"url": "https://39iosdev.gitlab.io/ccd-iqt/idf/agile/Agile/Overview.html"
		},
		{
			"object_id": {
				"$oid": "5f457f1e1ea90ba9adb32cae"
			},
			"item_proficiency": "",
			"url": "https://39iosdev.gitlab.io/ccd-iqt/idf/agile/Agile/Overview.html"
		},
		{
			"object_id": {
				"$oid": "5f457f1e1ea90ba9adb32c99"
			},
			"item_proficiency": "",
			"url": "https://confluence.90cos.cdl.af.mil/display/SG/%28U%29+AFI17-2DEVV3"
		}
	],
	"network": "commercial",
	"course": "Professional_Scrum_Product_Owner_I",
	"module": "scrum.org-professional-scrum-product-owner-i",
	"topic": "Product-Owner-Role",
	"subject": "pspo-product-owner-role",
	"work-roles": [
		"PO"
	],
	"map_for": "training",
	"topic_path": "./",
	"created_on": "2020-06-16"
},
{
	"_id": {
		"$oid": "5ee9250a761cf87371cf30c2"
	},
	"KSATs": [
		{
			"object_id": {
				"$oid": "5f457f1e1ea90ba9adb32d77"
			},
			"item_proficiency": "",
			"url": "https://39iosdev.gitlab.io/ccd-iqt/idf/agile/Agile/Overview.html"
		},
		{
			"object_id": {
				"$oid": "5f457f1e1ea90ba9adb32bab"
			},
			"item_proficiency": "",
			"url": "https://39iosdev.gitlab.io/ccd-iqt/idf/agile/Agile/Overview.html"
		},
		{
			"object_id": {
				"$oid": "5f457f1e1ea90ba9adb32bbe"
			},
			"item_proficiency": "",
			"url": "https://39iosdev.gitlab.io/ccd-iqt/idf/agile/Agile/Overview.html"
		}
	],
	"network": "commercial",
	"course": "Professional_Scrum_Product_Owner_I",
	"module": "scrum.org-professional-scrum-product-owner-i",
	"topic": "General-Scrum",
	"subject": "pspo-general-scrum",
	"work-roles": [
		"PO"
	],
	"map_for": "training",
	"topic_path": "./",
	"created_on": "2020-06-16",
	"updated_on": "2020-07-22"
},
{
	"_id": {
		"$oid": "5ee9250a761cf87371cf30c3"
	},
	"KSATs": [
		{
			"object_id": {
				"$oid": "5f457f1e1ea90ba9adb32ec2"
			},
			"item_proficiency": "",
			"url": "https://39iosdev.gitlab.io/ccd-iqt/idf/agile/Agile/Overview.html"
		},
		{
			"object_id": {
				"$oid": "5f457f1e1ea90ba9adb32ec6"
			},
			"item_proficiency": "",
			"url": "https://39iosdev.gitlab.io/ccd-iqt/idf/agile/Agile/Overview.html"
		},
		{
			"object_id": {
				"$oid": "5f457f1e1ea90ba9adb32ba9"
			},
			"item_proficiency": "",
			"url": "https://39iosdev.gitlab.io/ccd-iqt/idf/agile/Agile/Overview.html"
		},
		{
			"object_id": {
				"$oid": "5f457f1e1ea90ba9adb32bb8"
			},
			"item_proficiency": "",
			"url": "https://39iosdev.gitlab.io/ccd-iqt/idf/agile/Agile/Overview.html"
		},
		{
			"object_id": {
				"$oid": "5f457f1e1ea90ba9adb32bb1"
			},
			"item_proficiency": "",
			"url": "https://39iosdev.gitlab.io/ccd-iqt/idf/agile/Agile/Overview.html"
		},
		{
			"object_id": {
				"$oid": "5f457f1e1ea90ba9adb32bc0"
			},
			"item_proficiency": "",
			"url": "https://39iosdev.gitlab.io/ccd-iqt/idf/agile/Agile/Overview.html"
		},
		{
			"object_id": {
				"$oid": "5f457f1e1ea90ba9adb32bc2"
			},
			"item_proficiency": "",
			"url": "https://39iosdev.gitlab.io/ccd-iqt/idf/agile/Agile/Overview.html"
		},
		{
			"object_id": {
				"$oid": "5f457f1e1ea90ba9adb32bc8"
			},
			"item_proficiency": "",
			"url": "https://39iosdev.gitlab.io/ccd-iqt/idf/agile/Agile/Overview.html"
		},
		{
			"object_id": {
				"$oid": "5f457f1e1ea90ba9adb32bcb"
			},
			"item_proficiency": "",
			"url": "https://39iosdev.gitlab.io/ccd-iqt/idf/agile/Agile/Overview.html"
		},
		{
			"object_id": {
				"$oid": "5f457f1e1ea90ba9adb32bcd"
			},
			"item_proficiency": "",
			"url": "https://39iosdev.gitlab.io/ccd-iqt/idf/agile/Agile/Overview.html"
		},
		{
			"object_id": {
				"$oid": "5f457f1e1ea90ba9adb32bce"
			},
			"item_proficiency": "",
			"url": "https://39iosdev.gitlab.io/ccd-iqt/idf/agile/Agile/Overview.html"
		},
		{
			"object_id": {
				"$oid": "5f457f1e1ea90ba9adb32bd2"
			},
			"item_proficiency": "",
			"url": "https://39iosdev.gitlab.io/ccd-iqt/idf/agile/Agile/Overview.html"
		},
		{
			"object_id": {
				"$oid": "5f457f1e1ea90ba9adb32bcf"
			},
			"item_proficiency": "",
			"url": "https://39iosdev.gitlab.io/ccd-iqt/idf/agile/Agile/Overview.html"
		},
		{
			"object_id": {
				"$oid": "5f457f1e1ea90ba9adb32bd1"
			},
			"item_proficiency": "",
			"url": "https://39iosdev.gitlab.io/ccd-iqt/idf/agile/Agile/Overview.html"
		}
	],
	"network": "commercial",
	"course": "Professional_Scrum_Product_Owner_I",
	"module": "scrum.org-professional-scrum-product-owner-i",
	"topic": "Unknowns-Require-Validation",
	"subject": "pspo-unknowns-require-validation",
	"work-roles": [
		"PO"
	],
	"map_for": "training",
	"topic_path": "./",
	"created_on": "2020-06-16",
	"updated_on": "2020-08-28"
},
{
	"_id": {
		"$oid": "5ee9250a761cf87371cf30c4"
	},
	"KSATs": [
		{
			"object_id": {
				"$oid": "5f457f1e1ea90ba9adb32ec0"
			},
			"item_proficiency": "",
			"url": "https://39iosdev.gitlab.io/ccd-iqt/idf/agile/Agile/Overview.html"
		},
		{
			"object_id": {
				"$oid": "5f457f1e1ea90ba9adb32ec8"
			},
			"item_proficiency": "",
			"url": "https://39iosdev.gitlab.io/ccd-iqt/idf/agile/Agile/Overview.html"
		},
		{
			"object_id": {
				"$oid": "5f457f1e1ea90ba9adb32ec9"
			},
			"item_proficiency": "",
			"url": "https://39iosdev.gitlab.io/ccd-iqt/idf/agile/Agile/Overview.html"
		},
		{
			"object_id": {
				"$oid": "5f457f1e1ea90ba9adb32be3"
			},
			"item_proficiency": "",
			"url": "https://39iosdev.gitlab.io/ccd-iqt/idf/agile/Agile/Overview.html"
		},
		{
			"object_id": {
				"$oid": "5f457f1e1ea90ba9adb32bde"
			},
			"item_proficiency": "",
			"url": "https://39iosdev.gitlab.io/ccd-iqt/idf/agile/Agile/Overview.html"
		},
		{
			"object_id": {
				"$oid": "5f457f1e1ea90ba9adb32be1"
			},
			"item_proficiency": "",
			"url": "https://39iosdev.gitlab.io/ccd-iqt/idf/agile/Agile/Overview.html"
		},
		{
			"object_id": {
				"$oid": "5f457f1e1ea90ba9adb32bec"
			},
			"item_proficiency": "",
			"url": "https://39iosdev.gitlab.io/ccd-iqt/idf/agile/Agile/Overview.html"
		},
		{
			"object_id": {
				"$oid": "5f457f1e1ea90ba9adb32e44"
			},
			"item_proficiency": "3",
			"url": "https://39iosdev.gitlab.io/ccd-iqt/idf/agile/Agile/Overview.html"
		},
		{
			"object_id": {
				"$oid": "5f457f1e1ea90ba9adb32e45"
			},
			"item_proficiency": "3",
			"url": "https://39iosdev.gitlab.io/ccd-iqt/idf/agile/Agile/Overview.html"
		},
		{
			"object_id": {
				"$oid": "5f457f1e1ea90ba9adb32b5d"
			},
			"item_proficiency": "",
			"url": "https://www.scrum.org/courses/professional-scrum-product-owner-training"
		}
	],
	"network": "commercial",
	"course": "Professional_Scrum_Product_Owner_I",
	"module": "scrum.org-professional-scrum-product-owner-i",
	"topic": "Product-Backlog-Management",
	"subject": "pspo-product-backlog-management",
	"work-roles": [
		"PO"
	],
	"map_for": "training",
	"topic_path": "./",
	"created_on": "2020-06-16",
	"updated_on": "2020-07-22"
}]

