{
  "Python Data Types": {
    "uniq_id": "BD_PY_DTYPES_TUP",
    "uniq_name": "Python_Data_Types",
    "description": "Describe and use different basic data types in Python as well as the range() function, arithmetic operators, set functions, and converting data types.",
    "objective": "Store specified data in a tuple.;\nCreate a program using strings and string methods;\nUtilize string methods to manipulate strings;\nStore user input as a string;\nUse the Python interpreter to identify the data type;\nUse arithmetic operators to modify Python program functionality;\nUse bitwise operators to modify Python program functionality;\nUse type conversion to modify Python program functionality;\nUse Python to create, access and manipulate a list;\nUse Python to create, access and manipulate a Multi-dimensional list",
    "content": [
      {
        "description": "https://39iosdev.gitlab.io/ccd-iqt/idf/python/Data_Types/index.html",
        "ref": "https://39iosdev.gitlab.io/ccd-iqt/idf/python/Data_Types/index.html"
      }
    ],
    "performance": [
      {
        "description": "Store specified data in a tuple.",
        "perf": "https://www.w3schools.com/python/python_tuples.asp"
      },
      {
        "description": "Create a program using strings and string methods",
        "perf": "https://www.w3schools.com/python/python_strings.asp"
      },
      {
        "description": "Utilize string methods to manipulate strings",
        "perf": "https://www.w3schools.com/python/python_strings_modify.asp"
      },
      {
        "description": "Store user input as a string",
        "perf": "https://www.geeksforgeeks.org/taking-input-in-python/"
      },
      {
        "description": "Use the Python interpreter to identify the data type",
        "perf": "https://www.geeksforgeeks.org/type-isinstance-python/"
      },
      {
        "description": "Use arithmetic operators to modify Python program functionality",
        "perf": "https://www.geeksforgeeks.org/python-arithmetic-operators/"
      },
      {
        "description": "Use bitwise operators to modify Python program functionality",
        "perf": "https://www.geeksforgeeks.org/python-bitwise-operators/"
      },
      {
        "description": "Use type conversion to modify Python program functionality",
        "perf": "https://www.geeksforgeeks.org/type-conversion-python/"
      },
      {
        "description": "Use Python to create, access and manipulate a list",
        "perf": "https://www.geeksforgeeks.org/python-list/"
      },
      {
        "description": "Use Python to create, access and manipulate a Multi-dimensional list",
        "perf": "https://www.geeksforgeeks.org/python-using-2d-arrays-lists-the-right-way/"
      }
    ],
    "required_tasks": [],
    "required_abilities": [],
    "required_skills": [
      {
        "ksat_id": "S0023",
        "completes": true,
        "description": "Declare and implement data types."
      },
      {
        "ksat_id": "S0029",
        "completes": true,
        "description": "Utilize arithmetic operators (PEMDAS +, -, *, /, %) in mathematical equations."
      },
      {
        "ksat_id": "S0030",
        "completes": true,
        "description": "Utilize bitwise operators to manipulate binary values."
      }
    ],
    "required_knowledge": [
      {
        "ksat_id": "K0016",
        "completes": true,
        "description": "Understand how to declare and implement a Tuple."
      },
      {
        "ksat_id": "K0711",
        "completes": true,
        "description": "Understand Strings and String Methods"
      },
      {
        "ksat_id": "K0014",
        "completes": true,
        "description": "Understand how to declare and implement a Dictionary."
      },
      {
        "ksat_id": "K0017",
        "completes": true,
        "description": "Understand how to declare and implement a set."
      },
      {
        "ksat_id": "K0008",
        "completes": true,
        "description": "Describe the declaration and implementation of data types"
      },
      {
        "ksat_id": "K0018",
        "completes": false,
        "description": "Understand the term mutable and data types it applies to."
      },
      {
        "ksat_id": "K0019",
        "completes": false,
        "description": "Understand the term immutable and data types it applies to."
      },
      {
        "ksat_id": "K0015",
        "completes": true,
        "description": "Understand how to declare and implement a single and multi-dimensional List."
      },
      {
        "ksat_id": "K0111",
        "completes": true,
        "description": "Identify and understand bitwise operators. "
      },
      {
        "ksat_id": "K0712",
        "completes": true,
        "description": "Identify and understand type casting."
      },
      {
        "ksat_id": "K0716",
        "completes": true,
        "description": "Identify and understand arithmetic operators (PEMDAS)"
      }
    ],
    "resources": [
      {
        "title": "Using the Python Dictionaries",
        "type": "reference",
        "description": "Reference from IDF",
        "url": "https://www.w3schools.com/python/python_dictionaries.asp"
      },
      {
        "title": "Using Tuples in Python",
        "type": "reference",
        "description": "Reference from IDF",
        "url": "https://www.w3schools.com/python/python_tuples.asp"
      },
      {
        "title": "Overview of data structures in Python i.e. sets, lists, tuples, dictionaries",
        "type": "reference",
        "description": "Reference from IDF",
        "url": "https://docs.python.org/3/tutorial/datastructures.html"
      },
      {
        "title": "Variable types in Python",
        "type": "reference",
        "description": "Reference from IDF",
        "url": "https://www.tutorialspoint.com/python/python_variable_types.htm"
      },
      {
        "title": "Strings in Python",
        "type": "reference",
        "description": "Reference from IDF",
        "url": "https://www.tutorialspoint.com/python3/python_strings.htm"
      },
      {
        "title": "Dictionaries in Python",
        "type": "reference",
        "description": "Reference from IDF",
        "url": "https://realpython.com/python-dicts/"
      },
      {
        "title": "Python String Reference",
        "type": "reference",
        "description": "Reference from IDF",
        "url": "https://docs.python.org/3/library/string.html"
      },
      {
        "title": "Understanding lists in Python",
        "type": "reference",
        "description": "Reference from IDF",
        "url": "https://www.w3schools.com/python/python_lists.asp"
      },
      {
        "title": "Basic data types in Python",
        "type": "reference",
        "description": "Reference from IDF",
        "url": "https://docs.python.org/3/library/stdtypes.html"
      },
      {
        "title": "Python reference for numeric bases",
        "type": "reference",
        "description": "Reference from IDF",
        "url": "https://docs.python.org/3/library/numbers.html"
      }
    ],
    "comments": "generated by rellink to module script",
    "assessment": [
      {
        "description": "Use the Python interpreter to identify the data type",
        "eval": "https://39iosdev.gitlab.io/ccd-iqt/idf/python/Data_Types/lab2a.html"
      },
      {
        "description": "Use arithmetic operators to modify Python program functionality",
        "eval": "https://39iosdev.gitlab.io/ccd-iqt/idf/python/Data_Types/lab2b_c.html"
      },
      {
        "description": "Create a program using strings and string methods",
        "eval": "https://39iosdev.gitlab.io/ccd-iqt/idf/python/Data_Types/lab2d_e.html"
      },
      {
        "description": "Utilize string methods to manipulate strings",
        "eval": "https://39iosdev.gitlab.io/ccd-iqt/idf/python/Data_Types/lab2d_e.html"
      },
      {
        "description": "Store user input as a string",
        "eval": "https://39iosdev.gitlab.io/ccd-iqt/idf/python/Data_Types/lab2d_e.html"
      },
      {
        "description": "Use Python to create, access and manipulate a list",
        "eval": "https://39iosdev.gitlab.io/ccd-iqt/idf/python/Data_Types/lab2f.html"
      },
      {
        "description": "Use Python to create, access, and manipulate dictionaries in Python",
        "eval": "https://39iosdev.gitlab.io/ccd-iqt/idf/python/Data_Types/lab2h.html"
      },
      {
        "description": "Store specified data in a tuple.",
        "eval": "https://www.geeksforgeeks.org/find-the-size-of-a-tuple-in-python/"
      }
    ]
  }
}
